Website – Julian Gorman - Breaking News Story
…
events_saved <- readRDS(here("events_saved.rds"))

After loading the initial packages, I conducted some initial analysis to include in my story. First, I found the events that were most commonly held by candidates. To do this, I grouped by event type and then arranged them by their descending count.

events_saved %>% 
  group_by(event_type) %>% 
  summarise(count = n()) %>% 
  arrange(desc(count))

# A tibble: 249 × 2
   event_type       count
   <chr>            <int>
 1 event speech       200
 2 town hall           73
 3 cattle call         67
 4 meet and greet      67
 5 forum               52
 6 rally               42
 7 meet and greets     27
 8 campaign events     26
 9 debate              20
10 organizing event    20
# … with 239 more rows

Next, I analyzed which states the candidates most commonly held their events in. First, i group by state and then arranged by descending count to develop my list.

events_saved %>% 
  group_by(state) %>% 
  summarise(count = n()) %>% 
  arrange(desc(count)) 

# A tibble: 49 × 2
   state count
   <chr> <int>
 1 IA      200
 2 NH      132
 3 SC       90
 4 DC       86
 5 CA       69
 6 TX       59
 7 NV       58
 8 NY       45
 9 MI       42
10 FL       32
# … with 39 more rows
…
