Website – Julian Gorman - Filtering and Grouping Tutorial
…
ncaa_football_attendance %>% 
  summarize(mean_attendance_ncaa = mean(year_six, na.rm = TRUE))

# A tibble: 1 × 1
  mean_attendance_ncaa
                 <dbl>
1              260592.

Now lets find which team had the highest total attendance in year six. This can be done by arranging the scores from the year in descending order. So it will look like this:

ncaa_football_attendance %>% 
  arrange(desc(year_six))

# A tibble: 150 × 8
   Institution Conference year_one `year _two` year_th…¹ year_…² year_…³ year_…⁴
   <chr>       <chr>         <dbl>       <dbl>     <dbl>   <dbl>   <dbl>   <dbl>
 1 Michigan    Big Ten      781144      734364    771174  883741  669534  775156
 2 Penn St.    Big Ten      676112      711358    698590  701800  746946  738396
 3 Ohio St.    Big Ten      734528      744075    750705  750944  752464  713630
 4 Alabama     SEC          710538      710736    707786  712747  712053  710931
 5 LSU         SEC          639927      712063    654084  708618  591034  705733
 6 Texas A&M   SEC          697003      630735    725354  713418  691612  698908
 7 Tennessee   SEC          669087      698276    704088  706776  670454  650887
 8 Georgia     SEC          556476      649222    649222  556476  556476  649222
 9 Nebraska    Big Ten      727466      638744    629983  631402  628583  623240
10 Oklahoma    Big 12       508334      510972    512139  521142  519119  607146
# … with 140 more rows, and abbreviated variable names ¹​year_three, ²​year_four,
#   ³​year_five, ⁴​year_six
…
This is a good start; however, when looking at the datasheet we can see that several teams are listed twice. This is because they changed conferences over the period the research was being conducted. To find the teams which changed conferences, we can use the grouping function to find which teams are listed multiple times in the dataset.

ncaa_football_attendance %>% 
  group_by(Institution) %>% 
  summarise(count = n()) %>% 
  arrange(desc(count))

# A tibble: 131 × 2
   Institution     count
   <chr>           <int>
 1 Appalachian St.     2
 2 Charlotte           2
 3 Coastal Caro.       2
 4 East Carolina       2
 5 Ga. Southern        2
 6 Idaho               2
 7 Liberty             2
 8 Louisville          2
 9 Maryland            2
10 Massachusetts       2
# … with 121 more rows
…
